module gitlab.eclipse.org/eclipse/xfsc/personal-credential-manager-cloud/account-service

go 1.21.4

require (
	bou.ke/monkey v1.0.2
	github.com/DATA-DOG/go-sqlmock v1.5.2
	github.com/Nerzal/gocloak/v13 v13.8.0
	github.com/ReneKroon/ttlcache v1.7.0
	github.com/cloudevents/sdk-go/v2 v2.15.2
	github.com/gin-gonic/gin v1.9.1
	github.com/goccy/go-json v0.10.2
	github.com/golang-jwt/jwt/v4 v4.5.0
	github.com/google/uuid v1.6.0
	github.com/lestrrat-go/jwx/v2 v2.0.19
	github.com/modern-go/reflect2 v1.0.2
	github.com/spf13/viper v1.18.2
	github.com/stretchr/testify v1.9.0
	gitlab.eclipse.org/eclipse/xfsc/libraries/crypto/engine/core v1.0.0
	gitlab.eclipse.org/eclipse/xfsc/libraries/crypto/jwt v1.0.0
	gitlab.eclipse.org/eclipse/xfsc/libraries/messaging/cloudeventprovider v0.1.4
	gitlab.eclipse.org/eclipse/xfsc/libraries/microservice/core v0.0.0-20240116092736-449df81aa64d
	gitlab.eclipse.org/eclipse/xfsc/libraries/ssi/oid4vip v0.0.6
	gitlab.eclipse.org/eclipse/xfsc/organisational-credential-manager-w-stack/libraries/messaging v1.7.1
	gorm.io/driver/postgres v1.5.4
	gorm.io/gorm v1.25.6

)

require (
	github.com/Azure/go-amqp v0.17.0 // indirect
	github.com/IBM/sarama v1.43.0 // indirect
	github.com/bytedance/sonic v1.10.2 // indirect
	github.com/chenzhuoyu/base64x v0.0.0-20230717121745-296ad89f973d // indirect
	github.com/chenzhuoyu/iasm v0.9.1 // indirect
	github.com/cloudevents/sdk-go/protocol/amqp/v2 v2.15.2 // indirect
	github.com/cloudevents/sdk-go/protocol/kafka_sarama/v2 v2.15.2 // indirect
	github.com/cloudevents/sdk-go/protocol/mqtt_paho/v2 v2.0.0-20240306202833-0a3095dbbd1d // indirect
	github.com/cloudevents/sdk-go/protocol/nats/v2 v2.15.2 // indirect
	github.com/cloudevents/sdk-go/protocol/nats_jetstream/v2 v2.15.2 // indirect
	github.com/davecgh/go-spew v1.1.2-0.20180830191138-d8f796af33cc // indirect
	github.com/decred/dcrd/dcrec/secp256k1/v4 v4.2.0 // indirect
	github.com/eapache/go-resiliency v1.6.0 // indirect
	github.com/eapache/go-xerial-snappy v0.0.0-20230731223053-c322873962e3 // indirect
	github.com/eapache/queue v1.1.0 // indirect
	github.com/eclipse/paho.golang v0.12.0 // indirect
	github.com/fsnotify/fsnotify v1.7.0 // indirect
	github.com/gabriel-vasile/mimetype v1.4.3 // indirect
	github.com/gin-contrib/sse v0.1.0 // indirect
	github.com/go-logr/logr v1.4.1 // indirect
	github.com/go-logr/zapr v1.3.0 // indirect
	github.com/go-playground/locales v0.14.1 // indirect
	github.com/go-playground/universal-translator v0.18.1 // indirect
	github.com/go-playground/validator/v10 v10.16.0 // indirect
	github.com/go-resty/resty/v2 v2.7.0 // indirect
	github.com/golang/snappy v0.0.4 // indirect
	github.com/hashicorp/errwrap v1.1.0 // indirect
	github.com/hashicorp/go-multierror v1.1.1 // indirect
	github.com/hashicorp/go-uuid v1.0.3 // indirect
	github.com/hashicorp/hcl v1.0.0 // indirect
	github.com/jackc/pgpassfile v1.0.0 // indirect
	github.com/jackc/pgservicefile v0.0.0-20221227161230-091c0ba34f0a // indirect
	github.com/jackc/pgx/v5 v5.4.3 // indirect
	github.com/jcmturner/aescts/v2 v2.0.0 // indirect
	github.com/jcmturner/dnsutils/v2 v2.0.0 // indirect
	github.com/jcmturner/gofork v1.7.6 // indirect
	github.com/jcmturner/gokrb5/v8 v8.4.4 // indirect
	github.com/jcmturner/rpc/v2 v2.0.3 // indirect
	github.com/jinzhu/inflection v1.0.0 // indirect
	github.com/jinzhu/now v1.1.5 // indirect
	github.com/json-iterator/go v1.1.12 // indirect
	github.com/klauspost/compress v1.17.7 // indirect
	github.com/klauspost/cpuid/v2 v2.2.6 // indirect
	github.com/leodido/go-urn v1.2.4 // indirect
	github.com/lestrrat-go/blackmagic v1.0.2 // indirect
	github.com/lestrrat-go/httpcc v1.0.1 // indirect
	github.com/lestrrat-go/httprc v1.0.4 // indirect
	github.com/lestrrat-go/iter v1.0.2 // indirect
	github.com/lestrrat-go/option v1.0.1 // indirect
	github.com/magiconair/properties v1.8.7 // indirect
	github.com/mattn/go-isatty v0.0.20 // indirect
	github.com/mitchellh/mapstructure v1.5.0 // indirect
	github.com/modern-go/concurrent v0.0.0-20180306012644-bacd9c7ef1dd // indirect
	github.com/nats-io/nats.go v1.33.1 // indirect
	github.com/nats-io/nkeys v0.4.7 // indirect
	github.com/nats-io/nuid v1.0.1 // indirect
	github.com/oliveagle/jsonpath v0.0.0-20180606110733-2e52cf6e6852 // indirect
	github.com/opentracing/opentracing-go v1.2.0 // indirect
	github.com/pelletier/go-toml/v2 v2.1.1 // indirect
	github.com/pierrec/lz4/v4 v4.1.21 // indirect
	github.com/pkg/errors v0.9.1 // indirect
	github.com/pmezard/go-difflib v1.0.1-0.20181226105442-5d4384ee4fb2 // indirect
	github.com/rcrowley/go-metrics v0.0.0-20201227073835-cf1acfcdf475 // indirect
	github.com/sagikazarmark/locafero v0.4.0 // indirect
	github.com/sagikazarmark/slog-shim v0.1.0 // indirect
	github.com/segmentio/asm v1.2.0 // indirect
	github.com/segmentio/ksuid v1.0.4 // indirect
	github.com/sirupsen/logrus v1.9.3 // indirect
	github.com/sourcegraph/conc v0.3.0 // indirect
	github.com/spf13/afero v1.11.0 // indirect
	github.com/spf13/cast v1.6.0 // indirect
	github.com/spf13/pflag v1.0.5 // indirect
	github.com/stretchr/objx v0.5.2 // indirect
	github.com/subosito/gotenv v1.6.0 // indirect
	github.com/twitchyliquid64/golang-asm v0.15.1 // indirect
	github.com/ugorji/go/codec v1.2.12 // indirect
	go.uber.org/multierr v1.11.0 // indirect
	go.uber.org/zap v1.27.0 // indirect
	golang.org/x/arch v0.7.0 // indirect
	golang.org/x/crypto v0.21.0 // indirect
	golang.org/x/exp v0.0.0-20240325151524-a685a6edb6d8 // indirect
	golang.org/x/net v0.21.0 // indirect
	golang.org/x/sync v0.6.0 // indirect
	golang.org/x/sys v0.18.0 // indirect
	golang.org/x/text v0.14.0 // indirect
	google.golang.org/protobuf v1.32.0 // indirect
	gopkg.in/ini.v1 v1.67.0 // indirect
	gopkg.in/yaml.v3 v3.0.1 // indirect
)
